…
``` r
Baby_df %>%
  janitor::clean_names() %>%
  arrange(year_of_birth) %>%
  pivot_wider(
    names_from = "year_of_birth",
    values_from = "rank"
  ) %>%
  select(-count) %>%
  relocate(childs_first_name,gender,ethnicity)
```

    ## # A tibble: 23 × 9
    ##    childs_first_name gender ethnicity  `2011` `2012` `2013` `2014` `2015` `2016`
    ##    <chr>             <chr>  <chr>       <dbl>  <dbl>  <dbl>  <dbl>  <dbl>  <dbl>
    ##  1 OLIVIA            FEMALE ASIAN AND…      4     NA     NA     NA     NA     NA
    ##  2 OLIVIA            FEMALE BLACK NON…     10     NA     NA      8     NA     NA
    ##  3 OLIVIA            FEMALE HISPANIC       18     NA     NA     NA     NA     NA
    ##  4 OLIVIA            FEMALE WHITE NON…      2     NA     NA     NA     NA     NA
    ##  5 OLIVIA            FEMALE ASIAN AND…     NA      3     NA     NA     NA     NA
    ##  6 OLIVIA            FEMALE BLACK NON…     NA      8     NA     NA     NA     NA
    ##  7 OLIVIA            FEMALE HISPANIC       NA     22     NA     NA     NA     NA
    ##  8 OLIVIA            FEMALE WHITE NON…     NA      4     NA     NA     NA     NA
    ##  9 OLIVIA            FEMALE ASIAN AND…     NA     NA      3     NA     NA     NA
    ## 10 OLIVIA            FEMALE BLACK NON…     NA     NA      6     NA     NA     NA
    ## # … with 13 more rows
…
